%YAML 1.1
%TAG !u! tag:unity3d.com,2011:
--- !u!114 &11400000
MonoBehaviour:
  m_ObjectHideFlags: 0
  m_CorrespondingSourceObject: {fileID: 0}
  m_PrefabInstance: {fileID: 0}
  m_PrefabAsset: {fileID: 0}
  m_GameObject: {fileID: 0}
  m_Enabled: 1
  m_EditorHideFlags: 0
  m_Script: {fileID: 11500000, guid: 94769259fbb2a934089d9d4d42c6c532, type: 3}
  m_Name: Level 3
  m_EditorClassIdentifier: 
  words:
  - RASAPA
  - PEARRA
  completedWords:
  - APESAR
  - APARAR
  shelfAmount: 4
  shelfSpaces: 6
  occupiedShelf: 2
